# This file may be used to create an environment using:
# $ conda create --name <env> --file <this file>
# platform: osx-64
appnope=0.1.3=pyhd8ed1ab_0
argon2-cffi=21.3.0=pyhd8ed1ab_0
argon2-cffi-bindings=21.2.0=py39h63b48b0_2
asttokens=2.0.5=pyhd8ed1ab_0
attrs=21.4.0=pyhd8ed1ab_0
backcall=0.2.0=pyh9f0ad1d_0
backports=1.0=py_2
backports.functools_lru_cache=1.6.4=pyhd8ed1ab_0
bbmap=38.98=h3fae6ef_0
beautifulsoup4=4.11.1=pyha770c72_0
biopython=1.79=py39h89e85a6_1
bleach=5.0.0=pyhd8ed1ab_0
bokeh=2.4.3=py39h6e9494a_0
brotli=1.0.9=h5eb16cf_7
brotli-bin=1.0.9=h5eb16cf_7
brotlipy=0.7.0=py39h63b48b0_1004
bwa=0.7.17=h1f540d2_9
bzip2=1.0.8=h0d85af4_4
c-ares=1.18.1=h0d85af4_0
ca-certificates=2022.6.15=h033912b_0
certifi=2022.6.15=py39h6e9494a_0
cffi=1.15.0=py39he338e87_0
click=8.1.3=py39h6e9494a_0
cloudpickle=2.1.0=pyhd8ed1ab_0
colorama=0.4.4=pyh9f0ad1d_0
cryptography=37.0.1=py39hf6deb26_0
cvxpy=1.2.1=py39h6e9494a_0
cvxpy-base=1.2.1=py39hf72b562_0
cycler=0.11.0=pyhd8ed1ab_0
cytoolz=0.11.2=py39h63b48b0_2
dask=2022.5.2=pyhd8ed1ab_0
dask-core=2022.5.2=pyhd8ed1ab_0
dbus=1.13.6=h811a1a6_3
debugpy=1.6.0=py39hfd1d529_0
decorator=5.1.1=pyhd8ed1ab_0
defusedxml=0.7.1=pyhd8ed1ab_0
distributed=2022.5.2=pyhd8ed1ab_0
ecos=2.0.10=py39hc89836e_0
entrypoints=0.4=pyhd8ed1ab_0
executing=0.8.3=pyhd8ed1ab_0
expat=2.4.8=h96cf925_0
fastqc=0.11.9=hdfd78af_1
flit-core=3.7.1=pyhd8ed1ab_0
font-ttf-dejavu-sans-mono=2.37=hab24e00_0
fontconfig=2.14.0=h676cef8_0
fonttools=4.33.3=py39h701faf5_0
freetype=2.10.4=h4cff582_1
fsspec=2022.5.0=pyhd8ed1ab_0
gettext=0.19.8.1=hd1a6beb_1008
giflib=5.2.1=hbcb3906_2
heapdict=1.0.1=py_0
htslib=1.14=hefe9584_1
icu=68.2=he49afe7_0
idna=3.3=pyhd8ed1ab_0
importlib-metadata=4.11.4=py39h6e9494a_0
importlib_resources=5.7.1=pyhd8ed1ab_1
ipykernel=6.14.0=py39h71a6800_0
ipython=8.4.0=py39h6e9494a_0
ipython_genutils=0.2.0=py_1
ipywidgets=7.7.0=pyhd8ed1ab_0
ivar=1.3.1=he901cdd_3
jedi=0.18.1=py39h6e9494a_1
jinja2=3.1.2=pyhd8ed1ab_0
jpeg=9e=h5eb16cf_1
jsonschema=4.6.0=pyhd8ed1ab_0
jupyter=1.0.0=py39h6e9494a_7
jupyter_client=7.3.4=pyhd8ed1ab_0
jupyter_console=6.4.3=pyhd8ed1ab_0
jupyter_core=4.10.0=py39h6e9494a_0
jupyterlab_pygments=0.2.2=pyhd8ed1ab_0
jupyterlab_widgets=1.1.0=pyhd8ed1ab_0
kiwisolver=1.4.2=py39h7248d28_1
krb5=1.19.3=hb98e516_0
lcms2=2.12=h577c468_0
lerc=3.0=he49afe7_0
libblas=3.9.0=14_osx64_openblas
libbrotlicommon=1.0.9=h5eb16cf_7
libbrotlidec=1.0.9=h5eb16cf_7
libbrotlienc=1.0.9=h5eb16cf_7
libcblas=3.9.0=14_osx64_openblas
libclang=11.1.0=default_he082bbe_1
libcurl=7.83.1=h23f1065_0
libcxx=14.0.4=hc203e6f_0
libdeflate=1.9=h0d85af4_0
libedit=3.1.20191231=h0678c8f_2
libev=4.33=haf1e3a3_1
libffi=3.4.2=h0d85af4_5
libgfortran=5.0.0=9_3_0_h6c81a4c_23
libgfortran5=9.3.0=h6c81a4c_23
libglib=2.70.2=hf1fb8c0_4
libiconv=1.16=haf1e3a3_0
liblapack=3.9.0=14_osx64_openblas
libllvm11=11.1.0=hd011deb_3
libnghttp2=1.47.0=hca56917_0
libopenblas=0.3.20=openmp_hb3cd9ec_0
libpng=1.6.37=h7cec526_2
libpq=13.5=h8ce7ee7_1
libsodium=1.0.18=hbcb3906_1
libssh2=1.10.0=hd3787cc_2
libtiff=4.2.0=h1167814_3
libwebp-base=1.2.2=h0d85af4_1
libxcb=1.13=h0d85af4_1004
libzlib=1.2.12=h6c3fc93_0
llvm-openmp=14.0.4=ha654fa7_0
locket=1.0.0=pyhd8ed1ab_0
lofreq=2.1.5=py39h704b1a9_6
lz4=4.0.0=py39h263ca4c_2
lz4-c=1.9.3=he49afe7_1
markupsafe=2.1.1=py39h63b48b0_1
matplotlib=3.5.2=py39h6e9494a_0
matplotlib-base=3.5.2=py39h64a0072_0
matplotlib-inline=0.1.3=pyhd8ed1ab_0
mistune=0.8.4=py39h89e85a6_1005
msgpack-python=1.0.3=py39h7248d28_1
munkres=1.1.4=pyh9f0ad1d_0
mysql-common=8.0.29=h9525fdc_1
mysql-libs=8.0.29=h8d0e597_1
nbclient=0.6.4=pyhd8ed1ab_1
nbconvert=6.5.0=pyhd8ed1ab_0
nbconvert-core=6.5.0=pyhd8ed1ab_0
nbconvert-pandoc=6.5.0=pyhd8ed1ab_0
nbformat=5.4.0=pyhd8ed1ab_0
ncurses=6.3=h96cf925_1
nest-asyncio=1.5.5=pyhd8ed1ab_0
notebook=6.4.12=pyha770c72_0
nspr=4.32=hcd9eead_1
nss=3.78=ha8197d3_0
numpy=1.22.4=py39h677350a_0
olefile=0.46=pyh9f0ad1d_1
openjdk=11.0.9.1=h2292cb8_3
openjpeg=2.4.0=h6e7aa92_1
openssl=3.0.5=hb81d4ab_1
osqp=0.6.2.post0=py39h4d6be9b_3
packaging=21.3=pyhd8ed1ab_0
pandas=1.4.2=py39hf72b562_2
pandoc=2.18=h694c41f_0
pandocfilters=1.5.0=pyhd8ed1ab_0
parso=0.8.3=pyhd8ed1ab_0
partd=1.2.0=pyhd8ed1ab_0
patsy=0.5.2=pyhd8ed1ab_0
pbzip2=1.1.13=h9d27c22_1
pcre=8.45=he49afe7_0
perl=5.32.1=2_h0d85af4_perl5
pexpect=4.8.0=pyh9f0ad1d_2
pickleshare=0.7.5=py_1003
pillow=8.2.0=py39h5fdd921_1
pip=22.1.1=pyhd8ed1ab_0
prometheus_client=0.14.1=pyhd8ed1ab_0
prompt-toolkit=3.0.29=pyha770c72_0
prompt_toolkit=3.0.29=hd8ed1ab_0
psutil=5.9.1=py39h701faf5_0
pthread-stubs=0.4=hc929b4f_1001
ptyprocess=0.7.0=pyhd3deb0d_0
pure_eval=0.2.2=pyhd8ed1ab_0
pycparser=2.21=pyhd8ed1ab_0
pygments=2.12.0=pyhd8ed1ab_0
pyopenssl=22.0.0=pyhd8ed1ab_0
pyparsing=3.0.9=pyhd8ed1ab_0
pyqt=5.12.3=py39h9d385e7_4
pyqt5-sip=4.19.18=pypi_0
pyqtchart=5.12=pypi_0
pyqtwebengine=5.12.1=pypi_0
pyrsistent=0.18.1=py39h63b48b0_1
pysam=0.18.0=py39hdf76013_0
pysocks=1.7.1=py39h6e9494a_5
python=3.9.13=hf8d34f4_0_cpython
python-dateutil=2.8.2=pyhd8ed1ab_0
python-fastjsonschema=2.15.3=pyhd8ed1ab_0
python_abi=3.9=2_cp39
pytz=2022.1=pyhd8ed1ab_0
pyvcf=0.6.8=py39hde42818_1002
pyyaml=6.0=py39h63b48b0_4
pyzmq=23.1.0=py39hd639792_0
qdldl-python=0.1.5=py39h4d6be9b_2
qt=5.12.9=h126340a_4
qtconsole=5.3.1=pyhd8ed1ab_0
qtconsole-base=5.3.1=pyha770c72_0
qtpy=2.1.0=pyhd8ed1ab_0
readline=8.1=h05e3726_0
samtools=1.15=hb35f05f_0
scipy=1.8.1=py39hfa1a3ab_0
scs=3.2.0=py39h498a2e5_0
seaborn=0.11.2=hd8ed1ab_0
seaborn-base=0.11.2=pyhd8ed1ab_0
send2trash=1.8.0=pyhd8ed1ab_0
setuptools=62.3.2=py39h6e9494a_0
six=1.16.0=pyh6c4a22f_0
snpeff=5.1=hdfd78af_2
sortedcontainers=2.4.0=pyhd8ed1ab_0
soupsieve=2.3.1=pyhd8ed1ab_0
sqlite=3.38.5=hd9f0692_0
stack_data=0.3.0=pyhd8ed1ab_0
statsmodels=0.13.2=py39h15b18c7_0
tblib=1.7.0=pyhd8ed1ab_0
terminado=0.15.0=py39h6e9494a_0
tinycss2=1.1.1=pyhd8ed1ab_0
tk=8.6.12=h5dbffcc_0
toolz=0.11.2=pyhd8ed1ab_0
tornado=6.1=py39h63b48b0_3
tqdm=4.64.0=pyhd8ed1ab_0
traitlets=5.2.2.post1=pyhd8ed1ab_0
typing_extensions=4.2.0=pyha770c72_1
tzdata=2022a=h191b570_0
unicodedata2=14.0.0=py39h63b48b0_1
urllib3=1.26.9=pyhd8ed1ab_0
wcwidth=0.2.5=pyh9f0ad1d_2
webencodings=0.5.1=py_1
wheel=0.37.1=pyhd8ed1ab_0
widgetsnbextension=3.6.0=py39h6e9494a_0
xorg-libxau=1.0.9=h35c211d_0
xorg-libxdmcp=1.1.3=h35c211d_0
xz=5.2.5=haf1e3a3_1
yaml=0.2.5=h0d85af4_2
zeromq=4.3.4=he49afe7_1
zict=2.2.0=pyhd8ed1ab_0
zipp=3.8.0=pyhd8ed1ab_0
zlib=1.2.12=h6c3fc93_0
zstd=1.5.2=ha9df2e0_1
